{
  "type": "origins:modify_damage_taken",
  "damage_condition": {
    "type": "origins:name",
    "name": "fall"
  },
  "modifier": {
    "name": "Less fall damage",
    "operation": "multiply_base",
    "value": -0.75
  }
}
